…
top_words_by_specialty
```

    ## # A tibble: 169 × 3
    ##    medical_specialty    word             n
    ##    <chr>                <chr>        <int>
    ##  1 Allergy / Immunology allergies        4
    ##  2 Allergy / Immunology used             4
    ##  3 Allergy / Immunology allegra          3
    ##  4 Allergy / Immunology clear            3
    ##  5 Allergy / Immunology prescription     3
    ##  6 Allergy / Immunology sprays           3
    ##  7 Bariatrics           patient         29
    ##  8 Bariatrics           history         21
    ##  9 Bariatrics           placed          21
    ## 10 Bariatrics           abdomen         20
    ## # ℹ 159 more rows
…
