…
summary_table
```

    ## # A tibble: 48 × 3
    ## # Groups:   STATE [48]
    ##    STATE `high-elev` `low-elev`
    ##    <chr>       <dbl>      <dbl>
    ##  1 AL           25.9       26.9
    ##  2 AR           25.7       26.9
    ##  3 AZ           28.8       NA  
    ##  4 CA           23.7       21.1
    ##  5 CO           19.5       NA  
    ##  6 CT           21.8       22.5
    ##  7 DE           NA         24.6
    ##  8 FL          NaN         27.5
    ##  9 GA           26.4       26.8
    ## 10 IA           21.3       NA  
    ## # ℹ 38 more rows
…
